<?xml version="1.0" encoding="utf-8"?>
<svg t="1605413177789" class="icon" viewBox="0 0 1024 1024" version="1.1" p-id="3161" width="200" height="200" xmlns="http://www.w3.org/2000/svg">
  <path d="M 979.39 986.904 C 967.518 986.904 958.615 983.936 949.711 975.032 L 474.855 544.694 C 465.952 535.791 460.016 523.919 460.016 512.048 C 460.016 500.177 465.952 488.305 474.855 479.402 L 949.711 49.064 C 967.518 31.257 997.197 34.224 1012.036 52.032 C 1029.843 69.839 1026.875 99.517 1009.068 114.356 L 569.827 512.048 L 1009.068 909.74 C 1026.875 924.579 1029.843 954.257 1012.036 972.064 C 1003.132 980.968 991.261 986.904 979.39 986.904 Z" p-id="3162"/>
  <path d="M 519.373 986.904 C 507.502 986.904 498.598 983.936 489.695 975.032 L 14.839 544.694 C 5.935 535.791 0 523.919 0 512.048 C 0 500.177 5.935 488.305 14.839 479.402 L 489.695 49.064 C 507.502 31.257 537.18 34.224 552.019 52.032 C 569.827 69.839 566.859 99.517 549.052 114.356 L 109.81 512.048 L 549.052 909.74 C 566.859 927.547 569.827 954.257 552.019 972.064 C 543.116 980.968 531.244 986.904 519.373 986.904 Z" p-id="3163"/>
</svg>