<?xml version="1.0" encoding="utf-8"?>
<svg t="1605412713359" class="icon" viewBox="0 0 1024 1024" version="1.1" p-id="2889" width="200" height="200" xmlns="http://www.w3.org/2000/svg">
  <path d="M 926.804 90.734 L 758.298 90.734 L 758.298 38.886 C 758.298 18.147 740.151 0 719.411 0 C 698.672 0 680.525 18.147 680.525 38.886 L 680.525 90.734 L 343.513 90.734 L 343.513 38.886 C 343.513 18.147 325.366 0 304.627 0 C 283.887 0 265.741 18.147 265.741 38.886 L 265.741 90.734 L 97.234 90.734 C 47.978 90.734 6.5 132.212 6.5 181.468 L 6.5 933.266 C 6.5 982.521 47.978 1024 97.234 1024 L 926.804 1024 C 976.06 1024 1017.538 982.521 1017.538 933.266 L 1017.538 181.468 C 1017.538 132.212 976.06 90.734 926.804 90.734 Z M 97.234 168.506 L 265.741 168.506 L 265.741 246.278 C 265.741 267.017 283.887 285.164 304.627 285.164 C 325.366 285.164 343.513 267.017 343.513 246.278 L 343.513 168.506 L 680.525 168.506 L 680.525 246.278 C 680.525 267.017 698.672 285.164 719.411 285.164 C 740.151 285.164 758.298 267.017 758.298 246.278 L 758.298 168.506 L 926.804 168.506 C 934.581 168.506 939.766 173.691 939.766 181.468 L 939.766 417.377 C 934.581 414.784 931.989 414.784 926.804 414.784 L 97.234 414.784 C 92.049 414.784 89.457 414.784 84.272 417.377 L 84.272 181.468 C 84.272 173.691 89.457 168.506 97.234 168.506 Z M 926.804 946.228 L 97.234 946.228 C 89.457 946.228 84.272 941.043 84.272 933.266 L 84.272 489.964 C 89.457 492.557 92.049 492.557 97.234 492.557 L 926.804 492.557 C 931.989 492.557 934.581 492.557 939.766 489.964 L 939.766 933.266 C 939.766 941.043 934.581 946.228 926.804 946.228 Z" p-id="2890"/>
  <path d="M384 608h-85.333333c-17.066667 0-32 14.933333-32 32s14.933333 32 32 32h85.333333c17.066667 0 32-14.933333 32-32s-14.933333-32-32-32zM725.333333 608h-192c-17.066667 0-32 14.933333-32 32s14.933333 32 32 32h192c17.066667 0 32-14.933333 32-32s-14.933333-32-32-32z" p-id="2891"/>
</svg>