<?xml version="1.0" encoding="utf-8"?>
<svg t="1605413259608" class="icon" viewBox="0 0 1024 1024" version="1.1" p-id="3296" width="200" height="200" xmlns="http://www.w3.org/2000/svg">
  <path d="M 581.144 514.45 L 1005.89 89.704 C 1025.646 69.948 1025.646 40.315 1005.89 20.559 C 986.135 0.803 956.501 0.803 936.746 20.559 L 512 445.305 L 87.254 17.266 C 67.498 -2.489 37.865 -2.489 18.109 17.266 C -1.647 37.022 -1.647 66.655 18.109 86.411 L 442.855 514.45 L 14.816 939.196 C -4.939 958.951 -4.939 988.585 14.816 1008.34 C 24.694 1018.218 37.865 1021.511 51.035 1021.511 C 64.205 1021.511 77.376 1018.218 87.254 1008.34 L 512 583.594 L 936.746 1008.34 C 946.623 1018.218 959.794 1021.511 972.964 1021.511 C 986.135 1021.511 999.305 1018.218 1009.183 1008.34 C 1028.939 988.585 1028.939 958.951 1009.183 939.196 L 581.144 514.45 Z" p-id="3297"/>
</svg>